<!--
    <div class="container py-4"> // ③ 追加 
      {{-- フラッシュメッセージの表示 --}}
        @if (session('message'))
            <div class="alert alert-success">{{ session('message') }}</div>
        @endif
        
        @yield('content')
        -->